<?xml version="1.0" encoding="utf-8"?>
<!-- Generator: Adobe Illustrator 16.0.0, SVG Export Plug-In . SVG Version: 6.00 Build 0)  -->
<!DOCTYPE svg PUBLIC "-//W3C//DTD SVG 1.1//EN" "http://www.w3.org/Graphics/SVG/1.1/DTD/svg11.dtd">
<svg version="1.1" id="Camada_1" xmlns="http://www.w3.org/2000/svg" xmlns:xlink="http://www.w3.org/1999/xlink" x="0px" y="0px"
	 width="144px" height="148px" viewBox="118.5 175.5 144 148" enable-background="new 118.5 175.5 144 148" xml:space="preserve">
<circle fill="#E05055" cx="-73.465" cy="247.404" r="67.828"/>
<path fill="#313436" d="M-69,273.206h12.912c10.357,0,18.729-8.647,18.696-19.006c-0.021-6.871-3.8-13.278-9.847-16.542
	c1.282-2.229,1.957-4.806,1.958-7.375c-0.041-6.967-4.914-12.993-11.722-14.465c-1.623-8.582-9.896-14.235-18.478-12.611
	c-6.39,1.208-11.389,6.202-12.599,12.594c-6.81,1.473-11.683,7.472-11.722,14.438c0.001,2.571,0.675,5.095,1.958,7.325
	c-9.115,4.918-12.517,16.489-7.597,25.604c3.278,6.074,9.626,10.039,16.529,10.039H-76v1.729v9.271h-10.665
	c-1.498,0-2.711,1.002-2.711,2.5c0,1.496,1.213,2.5,2.711,2.5h28.246c1.497,0,2.711-1.004,2.711-2.5c0-1.498-1.214-2.5-2.711-2.5
	H-69v-9.271V273.206z"/>
<circle opacity="0.9" fill="#313436" cx="190.535" cy="414.198" r="67.828"/>
<g>
	<circle fill="#E05055" cx="-32.465" cy="92.943" r="67.828"/>
	<g>
		<path fill="#313436" d="M3.66,113.756c-3.695-6.51-7.52-12.946-11.2-19.466c-1.189-2.106-2.784-2.334-5.194-2.301
			c-5.093,0.072-10.186,0.756-15.273,0.756c-0.49,0-0.724,0-0.724,0c0-2,0-4,0-6c0,0,0.336,0,0.921,0
			c3.617,0,7.237-0.436,10.854-0.496c2.077-0.037,3.474-1.668,3.466-3.491c-0.009-1.858-1.403-3.266-3.499-3.303
			c-1.641-0.026-3.281-0.065-4.922-0.066c-2.687-0.001-5.374-0.029-8.217-0.029c-0.173-2.166-0.292-4.152-0.493-6.113
			c-0.425-4.179-3.618-6.913-7.611-6.554c-3.743,0.337-6.393,3.707-6.148,7.75c0.416,6.844,0.761,13.691,1.228,20.532
			c0.082,1.223,0.401,2.526,0.974,3.6c1.46,2.744,4.018,3.651,6.986,3.651c7.067,0,14.138,0.02,21.206-0.023
			c1.042-0.006,1.66,0.243,2.18,1.222c1.301,2.449,2.75,4.819,4.139,7.223c1.537,2.657,3.038,5.338,4.622,7.968
			c0.999,1.658,2.854,2.409,4.537,1.985c1.795-0.452,3.137-1.835,3.106-3.653C4.579,115.871,4.198,114.702,3.66,113.756z"/>
		<path fill="#313436" d="M-38.018,65.174c3.938,0,7.152-3.209,7.137-7.128c-0.016-3.938-3.229-7.102-7.182-7.071
			c-3.886,0.031-7.048,3.174-7.097,7.053C-45.206,61.898-41.935,65.174-38.018,65.174z"/>
		<path fill="#313436" d="M-10.046,109.71c-1.116-0.372-1.764-0.214-2.208,0.243c-0.305,0.313-0.511,0.77-0.511,1.289v-0.001
			c0,0-0.436,1.354-0.779,2.274c-3.459,8.683-12.09,14.212-21.501,13.354c-8.699-0.791-14.951-5.336-18.16-13.417
			c-3.148-7.938-1.757-15.321,3.709-21.705l4.374-4.335l-0.008-0.008c0.454-0.485,0.733-1.14,0.733-1.862
			c0-1.491-1.188-2.325-2.652-2.325c-0.453,0-0.878,0.694-1.251,0.694h-0.001c0,0-0.169-0.371-0.178-0.367
			c-0.03,0.018-0.254-0.338-0.254-0.319v0.52c0,0,0.301,0,0.299,0c-0.042,0-0.072-0.208-0.112-0.18
			c-0.062,0.042-0.114-0.042-0.172,0.004c-0.007,0.005-0.013-0.05-0.021-0.044c-0.331,0.236-0.802,0.56-1.239,0.958
			c-0.008,0.006-0.011-0.005-0.018,0.001c-7.93,6.078-11.975,16.894-9.786,26.678c3.311,14.813,17.442,23.973,32.239,20.715
			c5.312-1.17,9.681-3.616,13.153-7.192c0.006-0.006,0.013-0.015,0.02-0.021c1.243-1.224,2.317-2.629,3.118-3.789
			c0.104-0.146,0.21-0.306,0.314-0.471c0.74-1.109,1.167-1.896,1.167-1.896c0.899-1.592,1.475-3.869,1.479-3.89
			c0.034-0.111,0.063-0.21,0.087-0.282c0.17-0.53,0.251-1.061,0.206-1.618C-8.094,111.465-8.778,110.135-10.046,109.71z"/>
	</g>
</g>
<g>
	<circle fill="#E05055" cx="156.535" cy="58.074" r="67.828"/>
	<path fill="#313436" d="M191.271,25.341c-0.944-0.069-1.859-0.196-2.807-0.269c-2.214-0.24-4.306-0.436-6.319-0.79
		c-7.617-1.423-14.657-4.471-21.483-9.238c-1.215-0.875-2.555-1.328-3.908-1.382v-0.029c-0.084,0-0.154,0.016-0.227,0.016
		c-0.071,0-0.141-0.016-0.212-0.016v0.029c-1.368,0.055-2.707,0.508-3.906,1.382c-6.826,4.768-13.866,7.815-21.483,9.238
		c-2.018,0.354-4.104,0.55-6.32,0.79c-0.944,0.071-1.86,0.198-2.806,0.269c-4.262,0.396-6.278,3.725-6.278,6.843
		c0.239,14.459,2.766,26.688,7.744,37.479c6.234,13.431,16.307,24.165,30.019,31.994c0.818,0.493,1.891,0.775,3.032,0.847v0.015
		c0.071,0,0.142,0,0.212-0.015c0.071,0.015,0.143,0.015,0.227,0.015v-0.015c1.13-0.07,2.201-0.354,3.034-0.847
		c13.71-7.829,23.781-18.563,30.017-31.994c4.98-10.791,7.506-23.02,7.747-37.479C197.551,29.065,195.531,25.736,191.271,25.341z
		 M182.553,65.685c-5.43,11.709-14.262,21.188-26.223,28.155V57.885h-29.327c-2.498-7.42-3.696-15.065-3.922-24.206
		c0.254-0.028,0.493-0.058,0.732-0.07c0.381-0.042,0.764-0.086,1.157-0.114l1.227-0.126c1.905-0.211,3.881-0.424,5.938-0.777
		c8.578-1.607,16.491-4.979,24.193-10.282l0.06,35.526H185.8C184.91,60.529,183.795,63.005,182.553,65.685z"/>
</g>
<g>
	<circle fill="#E05055" cx="315.535" cy="58.074" r="67.828"/>
	<path fill="#313436" d="M359.978,41.286c-0.009-0.432-0.032-0.859-0.079-1.286c-0.112-1.004-0.343-1.995-0.685-2.945
		c-0.664-1.858-1.755-3.556-3.166-4.934c-1.375-1.339-3.042-2.367-4.855-2.991c-0.904-0.313-1.844-0.523-2.794-0.63
		c-0.429-0.047-0.856-0.072-1.287-0.079c-5.136-0.032-10.273-0.058-15.411-0.072c0.009-2.212,0.014-4.424-0.014-6.636
		c-0.012-0.288-0.029-0.575-0.064-0.861c-0.088-0.708-0.263-1.404-0.52-2.07c-0.465-1.201-1.196-2.297-2.13-3.186
		c-0.934-0.887-2.06-1.563-3.28-1.966c-0.612-0.203-1.244-0.337-1.883-0.4c-0.278-0.027-0.559-0.04-0.837-0.043
		c-4.408,0-8.815-0.052-13.226,0.002c-0.288,0.011-0.574,0.029-0.859,0.064c-0.707,0.088-1.405,0.263-2.069,0.52
		c-1.203,0.465-2.298,1.197-3.188,2.129c-0.887,0.934-1.562,2.062-1.967,3.282c-0.202,0.61-0.547,1.243-0.608,1.881
		c-0.027,0.279-0.254,0.559-0.254,0.837v6.446c-6,0.015-10.072,0.04-15.214,0.072c-0.43,0.007-0.752,0.032-1.18,0.079
		c-1.003,0.112-1.94,0.342-2.894,0.683c-1.856,0.664-3.529,1.755-4.906,3.167c-1.339,1.374-2.354,3.042-2.98,4.854
		c-0.31,0.904-0.516,1.844-0.622,2.796c-0.047,0.427-0.067,0.854-0.075,1.285c-0.082,13.184-0.08,26.367,0.001,39.551
		c0.01,0.482,0.04,0.964,0.099,1.442c0.125,1.003,0.369,1.99,0.721,2.938c0.688,1.85,1.801,3.534,3.229,4.896
		c1.389,1.321,3.066,2.328,4.889,2.932c0.909,0.301,1.853,0.501,2.805,0.596c0.425,0.042,0.849,0.061,1.273,0.063
		c20.389,0,40.776,0.125,61.164-0.002c0.431-0.008,0.858-0.03,1.287-0.078c0.95-0.106,1.89-0.318,2.794-0.631
		c1.763-0.606,3.388-1.596,4.739-2.88c1.469-1.396,2.6-3.138,3.282-5.045c0.342-0.952,0.571-1.941,0.685-2.945
		c0.047-0.428,0.07-0.855,0.079-1.285C360.059,67.652,360.059,54.469,359.978,41.286z M294.695,80.644
		c-4.807,0-8.705-3.896-8.705-8.704c0-4.808,3.898-8.704,8.705-8.704s8.705,3.896,8.705,8.704
		C303.4,76.749,299.501,80.644,294.695,80.644z M309.802,21.956c0-0.009,0.063-0.022,0.063-0.034c0.004-0.012,0.042,0.67,0.05,0.665
		c0.017-0.007,0.063,0.687,0.077,0.687c4.309,0,8.616,0,12.926,0c0.01,0,0.024-0.69,0.034-0.69c0.012,0.003-0.571-0.336-0.563-0.326
		c0.007,0.015-0.587-0.314-0.587-0.301v6.373l0,0c0-0.006-8-0.006-12,0V21.956L309.802,21.956z M328.99,48.857
		c-0.148,0.559-0.514,1.033-1.013,1.322c-3.611,2.085-11.466,6.619-15.076,8.704c-0.501,0.289-1.095,0.367-1.651,0.218
		c-0.558-0.148-1.033-0.515-1.32-1.014c-0.948-1.644-2.317-4.011-3.266-5.654c-0.289-0.5-0.367-1.094-0.218-1.651
		c0.149-0.557,0.514-1.031,1.015-1.319c3.61-2.086,11.467-6.621,15.076-8.705c0.499-0.289,1.094-0.367,1.651-0.218
		c0.559,0.149,1.033,0.515,1.32,1.015c0.948,1.642,2.315,4.011,3.265,5.654C329.061,47.708,329.14,48.302,328.99,48.857z
		 M342.802,79.273h-11v-12h11V79.273z"/>
</g>
<g>
	<circle fill="#E05055" cx="190.535" cy="252.123" r="67.828"/>
	<g id="XMLID_1_">
		<path id="XMLID_7_" fill="#313436" d="M187.401,258.586l1.381,3.021c1.3,0,2.589,0,3.894,0l1.381-3.021
			c1.323-2.916,3.884-5.031,6.905-5.895c-2.453-3.148-3.979-7.057-3.979-11.352c0-0.511,0.112-0.988,0.155-1.488
			c-1.959-0.003-4.362-0.006-6.784-0.006c-2.117,0-4.225,0.003-6.033,0.006c0.041,0.497,0.153,0.979,0.153,1.488
			c0,4.295-1.523,8.204-3.979,11.352C183.51,253.551,186.077,255.67,187.401,258.586z"/>
		<path id="XMLID_6_" fill="#313436" d="M203.75,223.74c0-7.402-5.999-13.396-13.395-13.396s-13.4,5.994-13.4,13.396
			c0,1.064,0.16,2.088,0.393,3.082c2.7,2.134,4.777,4.971,5.969,8.264c2.05,1.275,4.448,2.044,7.04,2.044
			c2.874,0,5.527-0.928,7.714-2.472c0.095-0.068,0.182-0.159,0.277-0.231c1.053-2.614,2.702-4.903,4.759-6.771
			C203.482,226.408,203.75,225.112,203.75,223.74z"/>
		<path id="XMLID_5_" fill="#313436" d="M240.409,279.318l-8.041-18.58c-1.036-2.264-3.376-3.496-5.749-3.266
			c-0.139-0.02-5.588-0.027-11.054-0.027c-5.452,0-10.909,0.01-11.043,0.027c-2.358-0.23-4.71,0.992-5.741,3.266l-8.051,17.637
			l-8.05-17.637c-1.038-2.271-3.382-3.496-5.748-3.266c-0.134-0.02-5.591-0.027-11.043-0.027c-5.458,0-10.916,0.01-11.051,0.027
			c-2.354-0.229-4.704,0.984-5.752,3.266l-8.427,18.469L240.409,279.318z"/>
		<path id="XMLID_4_" fill="#313436" d="M165.884,254.728c7.246,0,13.401-5.926,13.401-13.389c0-7.402-6.004-13.394-13.401-13.394
			c-7.396,0-13.399,5.992-13.399,13.394C152.484,248.802,158.633,254.728,165.884,254.728z"/>
		<path id="XMLID_3_" fill="#313436" d="M215.572,254.728c7.252,0,13.399-5.926,13.399-13.389c0-7.402-6.004-13.394-13.399-13.394
			c-7.395,0-13.396,5.992-13.396,13.394C202.177,248.802,208.326,254.728,215.572,254.728z"/>
	</g>
</g>
<g>
	
		<line fill="none" stroke="#FFFFFF" stroke-width="2" stroke-miterlimit="10" x1="175.958" y1="416.698" x2="182.958" y2="425.698"/>
	
		<line fill="none" stroke="#FFFFFF" stroke-width="2" stroke-miterlimit="10" x1="182.958" y1="425.698" x2="206.958" y2="402.698"/>
</g>
</svg>
