<?xml version="1.0" encoding="utf-8"?>
<!-- Generator: Adobe Illustrator 16.0.0, SVG Export Plug-In . SVG Version: 6.00 Build 0)  -->
<!DOCTYPE svg PUBLIC "-//W3C//DTD SVG 1.1//EN" "http://www.w3.org/Graphics/SVG/1.1/DTD/svg11.dtd">
<svg version="1.1" id="Camada_1" xmlns="http://www.w3.org/2000/svg" xmlns:xlink="http://www.w3.org/1999/xlink" x="0px" y="0px"
	 width="44px" height="44.231px" viewBox="2.5 3.269 44 44.231" enable-background="new 2.5 3.269 44 44.231" xml:space="preserve">
<g>
	<path fill="#FCBA35" d="M-54.837,95.686h-24.235c-1.54,0-2.624,1.248-2.624,2.786v24.235c0,1.539,1.084,2.756,2.624,2.756h7.19
		c1.978,2.398,4.638,5.625,4.927,5.625c0.254,0,2.921-3.227,4.911-5.625h7.207c1.538,0,2.918-1.217,2.918-2.756V98.472
		C-51.919,96.934-53.3,95.686-54.837,95.686z"/>
	<g>
		<path fill="none" d="M-57.083,110.529c0.005-0.752-0.99-1.57-2.659-2.188c-1.873-0.694-4.377-1.084-7.049-1.099h-0.146
			c-5.645,0-9.588,1.68-9.596,3.188c-0.002,0.283,0.139,0.576,0.403,0.864c1.601-1.289,5.174-2.177,9.328-2.155
			c4.156,0.021,7.719,0.945,9.307,2.252C-57.228,111.105-57.085,110.814-57.083,110.529z"/>
		<path fill="#343638" d="M-59.405,107.433c-1.979-0.731-4.599-1.144-7.382-1.159h-0.149c-6.01,0-10.552,1.785-10.563,4.15
			c-0.002,0.557,0.253,1.086,0.723,1.576c0.556,0.578,1.417,1.1,2.568,1.526c1.978,0.733,4.598,1.144,7.381,1.158h0.151
			c4.584,0,8.307-1.04,9.823-2.581c0.472-0.479,0.736-1.008,0.739-1.568C-56.107,109.322-57.277,108.221-59.405,107.433z
			 M-57.494,111.391c-1.588-1.307-5.15-2.23-9.307-2.252c-4.152-0.021-7.728,0.865-9.328,2.155
			c-0.265-0.288-0.403-0.581-0.403-0.864c0.008-1.508,3.951-3.188,9.596-3.188h0.146c2.673,0.015,5.176,0.404,7.049,1.099
			c1.669,0.618,2.664,1.437,2.659,2.188C-57.085,110.814-57.228,111.105-57.494,111.391z"/>
	</g>
</g>
<g>
	<path fill="#FCBA35" d="M36.202,9.823H12.509c-1.504,0-2.563,1.219-2.563,2.723v23.692c0,1.503,1.06,2.693,2.563,2.693h7.031
		c1.933,2.345,4.533,5.5,4.814,5.5c0.249,0,2.856-3.155,4.802-5.5h7.045c1.503,0,2.853-1.19,2.853-2.693V12.546
		C39.054,11.042,37.705,9.823,36.202,9.823z"/>
	<g>
		<path fill="#343638" d="M31.869,29.891c-0.815-1.44-1.663-2.864-2.476-4.305c-0.265-0.467-0.617-0.68-1.151-0.672
			c-1.126,0.016-2.252,0.004-3.379,0.004h-0.355v-1.213h0.399c0.801,0,1.602,0.009,2.401-0.005c0.459-0.008,0.769-0.316,0.768-0.719
			c-0.003-0.412-0.313-0.696-0.774-0.704c-0.363-0.006-0.727-0.003-1.091-0.003h-1.817c-0.037-0.479-0.064-0.915-0.106-1.349
			c-0.095-0.924-0.803-1.527-1.685-1.447c-0.829,0.073-1.415,0.82-1.361,1.715c0.092,1.514,0.168,3.028,0.271,4.542
			c0.019,0.271,0.089,0.56,0.217,0.796c0.321,0.608,0.886,0.808,1.544,0.808c1.564,0,3.128,0.004,4.692-0.004
			c0.23-0.002,0.367,0.055,0.482,0.27c0.288,0.542,0.608,1.066,0.915,1.6c0.341,0.585,0.673,1.179,1.023,1.762
			c0.22,0.366,0.631,0.531,1.002,0.439c0.397-0.1,0.694-0.408,0.689-0.807C32.073,30.359,31.988,30.1,31.869,29.891z"/>
		<path fill="#343638" d="M22.649,19.143c0.871,0,1.582-0.71,1.578-1.576c-0.003-0.871-0.713-1.572-1.588-1.565
			c-0.86,0.007-1.56,0.703-1.57,1.56C21.059,18.419,21.782,19.143,22.649,19.143z"/>
		<path fill="#343638" d="M28.837,28.996c-0.247-0.082-0.405-0.046-0.503,0.054c-0.067,0.071-0.107,0.169-0.127,0.285
			c0,0-0.083,0.299-0.158,0.503c-0.767,1.921-2.666,3.143-4.749,2.955c-1.927-0.176-3.306-1.181-4.015-2.969
			c-0.695-1.755-0.387-3.389,0.822-4.801l0.97-0.959l-0.002-0.002c0.101-0.106,0.162-0.251,0.162-0.411
			c0-0.331-0.264-0.598-0.587-0.598c-0.1,0-0.193,0.026-0.276,0.07l0,0c0,0-0.002,0-0.003,0.002
			c-0.006,0.004-0.014,0.007-0.021,0.011c0,0-0.001,0-0.001,0c-0.01,0.006-0.018,0.011-0.026,0.019
			c-0.013,0.007-0.028,0.018-0.04,0.029c-0.002,0.001-0.004,0.002-0.006,0.005c-0.072,0.052-0.177,0.13-0.275,0.218
			C20,23.409,20,23.41,19.999,23.412c-1.753,1.344-2.648,3.738-2.163,5.904c0.733,3.276,3.856,5.303,7.13,4.583
			c1.177-0.258,2.143-0.8,2.911-1.591c0.001-0.001,0.003-0.002,0.004-0.004c0.274-0.271,0.514-0.582,0.69-0.839
			c0.023-0.033,0.046-0.067,0.067-0.104c0.165-0.245,0.261-0.418,0.261-0.418c0.198-0.351,0.326-0.856,0.326-0.861
			c0.01-0.024,0.016-0.046,0.021-0.063c0.038-0.117,0.056-0.234,0.045-0.358C29.269,29.383,29.118,29.089,28.837,28.996z"/>
	</g>
</g>
<g>
	<path fill="#FCBA35" d="M388.011-13h-23.814c-1.512,0-2.576,1.226-2.576,2.737V13.55c0,1.512,1.064,2.708,2.576,2.708h7.066
		c1.943,2.356,4.557,5.527,4.841,5.527c0.25,0,2.871-3.171,4.826-5.527h7.081c1.511,0,2.867-1.196,2.867-2.708v-23.813
		C390.878-11.774,389.521-13,388.011-13z"/>
	<g>
		<path fill="#D3891B" d="M371.791,2.082c1.831,0,3.381-1.207,3.897-2.869h-7.795C368.41,0.875,369.959,2.082,371.791,2.082z"/>
		<g opacity="0.6">
			<path fill="#F9E3AA" d="M367.894-0.826l-5.209,16.6c0.415,0.305,0.93,0.483,1.512,0.483h7.066
				c1.943,2.356,4.557,5.527,4.841,5.527c0.25,0,2.871-3.171,4.826-5.527h2.198l-7.439-17.083H367.894z"/>
		</g>
		<path fill="#313436" d="M384.769-1.745c-1.763-1.5-4.047-2.24-6.217-2.58c-0.55-0.797-3.366-1.403-6.761-1.403
			c-1.402,0-2.766,0.123-4.146,0.359c-0.789,0.134-1.775,0.306-2.434,0.812c-0.627,0.482-0.505,1.475-0.497,2.158
			c0.005,0.651-0.035,1.612,0.878,1.612h2.301h7.795h2.302c0.42,0,0.762-0.226,0.762-0.504v-0.644
			c1.638,0.313,3.271,0.9,4.517,1.962c1.484,1.266,2.208,3.019,2.208,5.361l0.002,10.859h2.319V5.389
			C387.798,2.366,386.778-0.035,384.769-1.745z"/>
	</g>
</g>
<g>
	<path fill="#FCBA35" d="M417.568-13h-23.789c-1.51,0-2.573,1.225-2.573,2.734v23.788c0,1.51,1.063,2.705,2.573,2.705h7.06
		c1.941,2.354,4.552,5.521,4.836,5.521c0.249,0,2.867-3.167,4.819-5.521h7.074c1.51,0,2.864-1.195,2.864-2.705v-23.788
		C420.434-11.775,419.078-13,417.568-13z"/>
	<g>
		<polygon fill="#313436" points="411.184,5.786 400.553,5.786 400.553,3.891 398.078,3.891 398.078,9.577 400.553,9.577 
			400.553,7.649 411.184,7.649 411.184,9.705 413.656,9.705 413.656,4.02 411.184,4.02 		"/>
		<path fill="#313436" d="M400.386-4.203c0.061-0.165,0.099-0.339,0.099-0.526c0-0.854-0.668-1.458-1.522-1.458
			c-0.854,0-1.571,0.604-1.571,1.458c0,0.187,0.038,0.361,0.098,0.526H400.386z"/>
		<path fill="#313436" d="M414.311-4.17c0.061-0.166,0.099-0.341,0.099-0.527c0-0.854-0.669-1.458-1.523-1.458
			s-1.571,0.604-1.571,1.458c0,0.186,0.038,0.361,0.1,0.527H414.311z"/>
		<polygon fill="#313436" points="404.953,-3.144 401.711,-3.144 397.829,3.024 401.071,3.024 		"/>
		<polygon fill="#313436" points="405.568,3.024 409.449,-3.144 406.521,-3.144 402.64,3.024 		"/>
		<path fill="#313436" d="M415.623-3.144l-3.882,6.167c0,0,3.168,0,3.768,0s0.718-0.332,0.718-0.803c0-0.471,0-5.364,0-5.364
			H415.623L415.623-3.144z"/>
		<polygon fill="#313436" points="410.173,3.024 414.055,-3.144 411.019,-3.144 407.137,3.024 		"/>
		<path fill="#313436" d="M396.065-3.144c0,0-0.653-0.096-0.653,0.697c0,0.792,0,5.471,0,5.471h0.849l3.881-6.167L396.065-3.144
			L396.065-3.144z"/>
	</g>
</g>
<g>
	<path fill="#FCBA35" d="M446.288-13h-23.771c-1.51,0-2.573,1.224-2.573,2.732v23.771c0,1.509,1.063,2.702,2.573,2.702h7.054
		c1.939,2.353,4.548,5.518,4.831,5.518c0.25,0,2.866-3.165,4.816-5.518h7.069c1.508,0,2.862-1.193,2.862-2.702v-23.771
		C449.15-11.776,447.796-13,446.288-13z"/>
	<g>
		<path fill="#343638" d="M443.889,8.038l-4.167-7.213l-4.165-7.214c-0.207-0.361-0.593-0.583-1.01-0.583
			c-0.415,0-0.802,0.223-1.01,0.583l-4.164,7.214l-4.165,7.213c-0.209,0.361-0.209,0.805,0,1.167c0.208,0.36,0.594,0.582,1.01,0.582
			h16.659c0.417,0,0.803-0.222,1.012-0.582C444.096,8.843,444.096,8.399,443.889,8.038"/>
		<path fill="#EEC350" d="M433.888,4.872c0.019,0.272,0.148,0.492,0.29,0.492h0.671c0.143,0,0.274-0.22,0.296-0.492l0.5-6.425
			c0.021-0.272-0.183-0.493-0.455-0.493h-1.279c-0.271,0-0.478,0.221-0.459,0.493L433.888,4.872z"/>
		<path fill="#EEC350" d="M433.635,6.842c0,0.502,0.409,0.912,0.913,0.912s0.911-0.409,0.911-0.912c0-0.504-0.407-0.912-0.911-0.912
			S433.635,6.338,433.635,6.842"/>
	</g>
</g>
<g>
	<path fill="#FCBA35" d="M475.354-13h-23.771c-1.51,0-2.573,1.224-2.573,2.732v23.771c0,1.509,1.063,2.702,2.573,2.702h7.054
		c1.939,2.353,4.548,5.518,4.831,5.518c0.25,0,2.867-3.165,4.816-5.518h7.069c1.509,0,2.863-1.193,2.863-2.702v-23.771
		C478.216-11.776,476.861-13,475.354-13z"/>
	<g>
		<path fill="#313436" d="M463.612-7.008c-2.275,0-4.119,1.652-4.119,3.689V6.842c0,2.037,1.844,3.688,4.119,3.688
			c2.276,0,4.12-1.652,4.12-3.688V-3.319C467.732-5.356,465.889-7.008,463.612-7.008z M463.612,8.519
			c-1.038,0-1.882-0.842-1.882-1.881c0-1.038,0.844-1.881,1.882-1.881c1.04,0,1.881,0.842,1.881,1.881
			C465.493,7.677,464.652,8.519,463.612,8.519z M463.612,3.643c-1.038,0-1.882-0.842-1.882-1.881c0-1.039,0.844-1.88,1.882-1.88
			c1.04,0,1.881,0.842,1.881,1.88C465.493,2.8,464.652,3.643,463.612,3.643z M463.612-1.234c-1.038,0-1.882-0.842-1.882-1.881
			c0-1.038,0.844-1.881,1.882-1.881c1.039,0,1.881,0.843,1.881,1.881C465.493-2.077,464.651-1.234,463.612-1.234z"/>
		<path fill="#313436" d="M463.612-8.3c-2.961,0-5.361,1.895-5.361,4.232V7.59c0,2.339,2.399,4.233,5.361,4.233
			c2.961,0,5.36-1.894,5.36-4.233V-4.067C468.973-6.405,466.573-8.3,463.612-8.3z M468.224,7.092c0,2.138-2.065,3.87-4.611,3.87
			c-2.547,0-4.61-1.732-4.61-3.87V-3.569c0-2.137,2.063-3.87,4.61-3.87c2.546,0,4.611,1.733,4.611,3.87V7.092z"/>
	</g>
</g>
<g>
	<g>
		<path fill="#343638" d="M-54.558,52.28h-24.801c-1.574,0-2.684,1.275-2.684,2.85v24.8c0,1.574,1.109,2.82,2.684,2.82H-72
			c2.023,2.453,4.744,5.756,5.041,5.756c0.26,0,2.989-3.303,5.023-5.756h7.377c1.573,0,2.985-1.246,2.985-2.82v-24.8
			C-51.573,53.555-52.986,52.28-54.558,52.28z"/>
	</g>
	<g>
		<line fill="none" stroke="#FFFFFF" stroke-miterlimit="10" x1="-70.735" y1="68.723" x2="-68.454" y2="71.657"/>
		<line fill="none" stroke="#FFFFFF" stroke-miterlimit="10" x1="-68.454" y1="71.657" x2="-60.631" y2="64.161"/>
	</g>
</g>
</svg>
