<?xml version="1.0" encoding="utf-8"?>
<!-- Generator: Adobe Illustrator 16.0.0, SVG Export Plug-In . SVG Version: 6.00 Build 0)  -->
<!DOCTYPE svg PUBLIC "-//W3C//DTD SVG 1.1//EN" "http://www.w3.org/Graphics/SVG/1.1/DTD/svg11.dtd">
<svg version="1.1" id="Camada_1" xmlns="http://www.w3.org/2000/svg" xmlns:xlink="http://www.w3.org/1999/xlink" x="0px" y="0px"
	 width="44px" height="44.231px" viewBox="2.5 3.269 44 44.231" enable-background="new 2.5 3.269 44 44.231" xml:space="preserve">
<g>
	<path fill="#FCBA35" d="M-54.837,95.686h-24.235c-1.54,0-2.624,1.248-2.624,2.786v24.235c0,1.539,1.084,2.756,2.624,2.756h7.19
		c1.978,2.398,4.638,5.625,4.927,5.625c0.254,0,2.921-3.227,4.911-5.625h7.207c1.538,0,2.918-1.217,2.918-2.756V98.472
		C-51.919,96.934-53.3,95.686-54.837,95.686z"/>
	<g>
		<path fill="none" d="M-57.083,110.529c0.005-0.752-0.99-1.57-2.659-2.188c-1.873-0.694-4.377-1.084-7.049-1.099h-0.146
			c-5.645,0-9.588,1.68-9.596,3.188c-0.002,0.283,0.139,0.576,0.403,0.864c1.601-1.289,5.174-2.177,9.328-2.155
			c4.156,0.021,7.719,0.945,9.307,2.252C-57.228,111.105-57.085,110.814-57.083,110.529z"/>
		<path fill="#343638" d="M-59.405,107.433c-1.979-0.731-4.599-1.144-7.382-1.159h-0.149c-6.01,0-10.552,1.785-10.563,4.15
			c-0.002,0.557,0.253,1.086,0.723,1.576c0.556,0.578,1.417,1.1,2.568,1.526c1.978,0.733,4.598,1.144,7.381,1.158h0.151
			c4.584,0,8.307-1.04,9.823-2.581c0.472-0.479,0.736-1.008,0.739-1.568C-56.107,109.322-57.277,108.221-59.405,107.433z
			 M-57.494,111.391c-1.588-1.307-5.15-2.23-9.307-2.252c-4.152-0.021-7.728,0.865-9.328,2.155
			c-0.265-0.288-0.403-0.581-0.403-0.864c0.008-1.508,3.951-3.188,9.596-3.188h0.146c2.673,0.015,5.176,0.404,7.049,1.099
			c1.669,0.618,2.664,1.437,2.659,2.188C-57.085,110.814-57.228,111.105-57.494,111.391z"/>
	</g>
</g>
<g>
	<path fill="#FCBA35" d="M-56.752,136.029h-23.692c-1.504,0-2.563,1.22-2.563,2.724v23.692c0,1.503,1.06,2.693,2.563,2.693h7.031
		c1.933,2.344,4.533,5.499,4.814,5.499c0.249,0,2.856-3.155,4.802-5.499h7.045c1.503,0,2.853-1.19,2.853-2.693v-23.692
		C-53.899,137.249-55.249,136.029-56.752,136.029z"/>
	<g>
		<path fill="#343638" d="M-61.085,156.098c-0.815-1.439-1.663-2.863-2.476-4.305c-0.265-0.468-0.617-0.681-1.151-0.672
			c-1.126,0.016-2.252,0.004-3.379,0.004h-0.355v-1.213h0.399c0.801,0,1.602,0.009,2.401-0.005c0.459-0.009,0.769-0.315,0.768-0.72
			c-0.003-0.411-0.313-0.695-0.774-0.703c-0.363-0.006-0.727-0.004-1.091-0.004h-1.817c-0.037-0.479-0.064-0.914-0.106-1.348
			c-0.095-0.924-0.803-1.527-1.685-1.447c-0.829,0.072-1.415,0.819-1.361,1.715c0.092,1.514,0.168,3.027,0.271,4.541
			c0.019,0.271,0.089,0.561,0.217,0.797c0.321,0.607,0.886,0.808,1.544,0.808c1.564,0,3.128,0.005,4.692-0.005
			c0.23-0.002,0.367,0.055,0.482,0.27c0.288,0.543,0.608,1.066,0.915,1.6c0.341,0.586,0.673,1.18,1.023,1.763
			c0.22,0.366,0.631,0.53,1.002,0.438c0.397-0.1,0.694-0.407,0.689-0.807C-60.881,156.566-60.966,156.307-61.085,156.098z"/>
		<path fill="#343638" d="M-70.305,145.35c0.871,0,1.582-0.711,1.578-1.576c-0.003-0.871-0.713-1.572-1.588-1.564
			c-0.86,0.007-1.56,0.702-1.57,1.56C-71.895,144.625-71.172,145.35-70.305,145.35z"/>
		<path fill="#343638" d="M-64.116,155.202c-0.247-0.082-0.405-0.046-0.503,0.054c-0.067,0.071-0.107,0.17-0.127,0.285
			c0,0-0.083,0.299-0.158,0.504c-0.767,1.921-2.666,3.143-4.749,2.955c-1.927-0.176-3.306-1.182-4.015-2.969
			c-0.695-1.756-0.387-3.39,0.822-4.802l0.97-0.96l-0.002-0.002c0.101-0.105,0.162-0.251,0.162-0.41
			c0-0.331-0.264-0.598-0.587-0.598c-0.1,0-0.193,0.025-0.276,0.07l0,0c0,0-0.002,0-0.003,0.002
			c-0.006,0.004-0.014,0.008-0.021,0.011c0,0-0.001,0-0.001,0.001c-0.01,0.006-0.018,0.01-0.026,0.019
			c-0.013,0.007-0.028,0.018-0.04,0.028c-0.002,0.002-0.004,0.003-0.006,0.006c-0.072,0.052-0.177,0.13-0.275,0.217
			c-0.002,0.002-0.003,0.004-0.004,0.006c-1.753,1.344-2.648,3.738-2.163,5.904c0.733,3.275,3.856,5.303,7.13,4.582
			c1.177-0.258,2.143-0.8,2.911-1.59c0.001-0.002,0.003-0.003,0.004-0.004c0.274-0.271,0.514-0.582,0.69-0.84
			c0.023-0.033,0.046-0.066,0.067-0.104c0.165-0.245,0.261-0.419,0.261-0.419c0.198-0.35,0.326-0.855,0.326-0.86
			c0.01-0.024,0.016-0.046,0.021-0.063c0.038-0.116,0.056-0.234,0.045-0.358C-63.685,155.59-63.836,155.296-64.116,155.202z"/>
	</g>
</g>
<g>
	<path fill="#FCBA35" d="M-56.692,176.205h-23.814c-1.512,0-2.576,1.226-2.576,2.737v23.813c0,1.512,1.064,2.707,2.576,2.707h7.066
		c1.943,2.356,4.557,5.527,4.841,5.527c0.25,0,2.871-3.171,4.826-5.527h7.081c1.511,0,2.867-1.195,2.867-2.707v-23.813
		C-53.825,177.431-55.181,176.205-56.692,176.205z"/>
	<g>
		<path fill="#D3891B" d="M-72.912,191.287c1.831,0,3.381-1.207,3.897-2.869h-7.795C-76.292,190.08-74.744,191.287-72.912,191.287z"
			/>
		<g opacity="0.6">
			<path fill="#F9E3AA" d="M-76.809,188.379l-5.209,16.601c0.415,0.305,0.93,0.483,1.512,0.483h7.066
				c1.943,2.356,4.557,5.527,4.841,5.527c0.25,0,2.871-3.171,4.826-5.527h2.198l-7.439-17.084H-76.809z"/>
		</g>
		<path fill="#313436" d="M-59.934,187.46c-1.763-1.499-4.047-2.239-6.217-2.58c-0.55-0.797-3.366-1.403-6.761-1.403
			c-1.402,0-2.766,0.123-4.146,0.359c-0.789,0.135-1.775,0.306-2.434,0.813c-0.627,0.482-0.505,1.475-0.497,2.158
			c0.005,0.65-0.035,1.611,0.878,1.611h2.301h7.795h2.302c0.42,0,0.762-0.227,0.762-0.504v-0.644c1.638,0.313,3.271,0.9,4.517,1.962
			c1.484,1.266,2.208,3.02,2.208,5.361l0.002,10.859h2.319v-10.859C-56.905,191.57-57.924,189.17-59.934,187.46z"/>
	</g>
</g>
<g>
	<path fill="#FCBA35" d="M-56.705,216.477h-23.789c-1.51,0-2.573,1.225-2.573,2.734v23.787c0,1.51,1.063,2.705,2.573,2.705h7.06
		c1.941,2.354,4.552,5.521,4.836,5.521c0.249,0,2.867-3.168,4.819-5.521h7.074c1.51,0,2.864-1.195,2.864-2.705v-23.787
		C-53.839,217.701-55.195,216.477-56.705,216.477z"/>
	<g>
		<polygon fill="#313436" points="-63.089,235.262 -73.72,235.262 -73.72,233.367 -76.195,233.367 -76.195,239.053 -73.72,239.053 
			-73.72,237.125 -63.089,237.125 -63.089,239.182 -60.617,239.182 -60.617,233.496 -63.089,233.496 		"/>
		<path fill="#313436" d="M-73.887,225.273c0.061-0.165,0.099-0.34,0.099-0.526c0-0.854-0.668-1.458-1.522-1.458
			c-0.854,0-1.571,0.604-1.571,1.458c0,0.187,0.038,0.361,0.098,0.526H-73.887z"/>
		<path fill="#313436" d="M-59.962,225.307c0.061-0.166,0.099-0.342,0.099-0.527c0-0.854-0.669-1.458-1.523-1.458
			s-1.571,0.604-1.571,1.458c0,0.186,0.038,0.361,0.1,0.527H-59.962z"/>
		<polygon fill="#313436" points="-69.32,226.332 -72.562,226.332 -76.444,232.5 -73.202,232.5 		"/>
		<polygon fill="#313436" points="-68.705,232.5 -64.824,226.332 -67.751,226.332 -71.633,232.5 		"/>
		<path fill="#313436" d="M-58.65,226.332l-3.882,6.168c0,0,3.168,0,3.768,0s0.718-0.332,0.718-0.803c0-0.472,0-5.365,0-5.365
			H-58.65L-58.65,226.332z"/>
		<polygon fill="#313436" points="-64.1,232.5 -60.218,226.332 -63.254,226.332 -67.136,232.5 		"/>
		<path fill="#313436" d="M-78.208,226.332c0,0-0.653-0.096-0.653,0.697c0,0.791,0,5.471,0,5.471h0.849l3.881-6.167L-78.208,226.332
			L-78.208,226.332z"/>
	</g>
</g>
<g>
	<path fill="#FCBA35" d="M-58.565,257.449h-23.771c-1.51,0-2.573,1.223-2.573,2.732v23.771c0,1.508,1.063,2.701,2.573,2.701h7.054
		c1.939,2.354,4.548,5.518,4.831,5.518c0.25,0,2.866-3.164,4.816-5.518h7.069c1.508,0,2.862-1.193,2.862-2.701v-23.771
		C-55.703,258.672-57.057,257.449-58.565,257.449z"/>
	<g>
		<path fill="#343638" d="M-60.964,278.486l-4.167-7.213l-4.165-7.214c-0.207-0.36-0.593-0.583-1.01-0.583
			c-0.415,0-0.802,0.223-1.01,0.583l-4.164,7.214l-4.165,7.213c-0.209,0.361-0.209,0.806,0,1.168
			c0.208,0.359,0.594,0.582,1.01,0.582h16.659c0.417,0,0.803-0.223,1.012-0.582C-60.757,279.292-60.757,278.848-60.964,278.486"/>
		<path fill="#EEC350" d="M-70.965,275.32c0.019,0.272,0.148,0.492,0.29,0.492h0.671c0.143,0,0.274-0.22,0.296-0.492l0.5-6.424
			c0.021-0.272-0.183-0.494-0.455-0.494h-1.279c-0.271,0-0.478,0.222-0.459,0.494L-70.965,275.32z"/>
		<path fill="#EEC350" d="M-71.218,277.291c0,0.502,0.409,0.911,0.913,0.911s0.911-0.409,0.911-0.911
			c0-0.504-0.407-0.912-0.911-0.912S-71.218,276.787-71.218,277.291"/>
	</g>
</g>
<g>
	<path fill="#FCBA35" d="M36.241,9.531H12.47c-1.51,0-2.573,1.224-2.573,2.732v23.771c0,1.509,1.063,2.702,2.573,2.702h7.054
		c1.939,2.353,4.548,5.518,4.831,5.518c0.25,0,2.867-3.165,4.816-5.518h7.069c1.509,0,2.863-1.193,2.863-2.702V12.263
		C39.104,10.754,37.749,9.531,36.241,9.531z"/>
	<g>
		<path fill="#313436" d="M24.5,15.522c-2.275,0-4.119,1.652-4.119,3.689v10.162c0,2.037,1.844,3.688,4.119,3.688
			c2.276,0,4.12-1.652,4.12-3.688V19.211C28.62,17.175,26.776,15.522,24.5,15.522z M24.5,31.05c-1.038,0-1.882-0.842-1.882-1.881
			c0-1.038,0.844-1.881,1.882-1.881c1.04,0,1.881,0.842,1.881,1.881C26.381,30.208,25.54,31.05,24.5,31.05z M24.5,26.173
			c-1.038,0-1.882-0.842-1.882-1.881c0-1.039,0.844-1.88,1.882-1.88c1.04,0,1.881,0.842,1.881,1.88
			C26.381,25.331,25.54,26.173,24.5,26.173z M24.5,21.296c-1.038,0-1.882-0.842-1.882-1.881c0-1.038,0.844-1.881,1.882-1.881
			c1.039,0,1.881,0.843,1.881,1.881C26.381,20.454,25.539,21.296,24.5,21.296z"/>
		<path fill="#313436" d="M24.5,14.231c-2.961,0-5.361,1.895-5.361,4.232v11.658c0,2.339,2.399,4.233,5.361,4.233
			c2.961,0,5.36-1.894,5.36-4.233V18.463C29.86,16.126,27.461,14.231,24.5,14.231z M29.111,29.623c0,2.138-2.065,3.87-4.611,3.87
			c-2.547,0-4.61-1.732-4.61-3.87V18.962c0-2.137,2.063-3.87,4.61-3.87c2.546,0,4.611,1.733,4.611,3.87V29.623z"/>
	</g>
</g>
<g>
	<g>
		<path fill="#343638" d="M-54.558,52.28h-24.801c-1.574,0-2.684,1.275-2.684,2.85v24.8c0,1.574,1.109,2.82,2.684,2.82H-72
			c2.023,2.453,4.744,5.756,5.041,5.756c0.26,0,2.989-3.303,5.023-5.756h7.377c1.573,0,2.985-1.246,2.985-2.82v-24.8
			C-51.573,53.555-52.986,52.28-54.558,52.28z"/>
	</g>
	<g>
		<line fill="none" stroke="#FFFFFF" stroke-miterlimit="10" x1="-70.735" y1="68.723" x2="-68.454" y2="71.657"/>
		<line fill="none" stroke="#FFFFFF" stroke-miterlimit="10" x1="-68.454" y1="71.657" x2="-60.631" y2="64.161"/>
	</g>
</g>
</svg>
