<?xml version="1.0" encoding="utf-8"?>
<!-- Generator: Adobe Illustrator 16.0.0, SVG Export Plug-In . SVG Version: 6.00 Build 0)  -->
<!DOCTYPE svg PUBLIC "-//W3C//DTD SVG 1.1//EN" "http://www.w3.org/Graphics/SVG/1.1/DTD/svg11.dtd">
<svg version="1.1" id="Layer_1" xmlns="http://www.w3.org/2000/svg" xmlns:xlink="http://www.w3.org/1999/xlink" x="0px" y="0px"
	 width="531px" height="351px" viewBox="0 0 531 351" enable-background="new 0 0 531 351" xml:space="preserve">
<g>
	<path fill="#323436" d="M490.474,198h-14.165c-2.296,0-3.826,1.04-3.826,3.719c-0.767,23.349-14.613,38.989-36.049,38.989
		c-22.967,0-36.434-16.134-36.434-39.1V178h36.118c35.214,0,58.564-23.984,58.564-55.755c0-33.685-23.351-58.882-58.564-58.882
		c-32.826,0-54.49,21.063-58.04,51.489c-3.435-30.208-25.738-51.823-58.074-51.823c-31.896,0-54.048,21.049-57.943,50.614
		c-3.915-29.565-26.175-50.602-58.07-50.602c-31.914,0-54.143,21.063-58.02,50.652c-3.551-29.31-25.183-50.648-57.303-50.648
		c-32.918,0-54.37,23.662-56.283,56.198c0,2.296,1.516,3.758,3.813,3.758H50.36c2.297,0,3.445-1.078,3.827-3.757
		c1.532-21.053,14.354-35.18,34.641-35.18c22.583,0,36.172,16.111,36.172,38.312V148H87.489c-34.832,0-58.182,24.509-58.182,54.747
		c0,34.066,24.198,59.145,59.795,59.145c30.667,0,51.897-19.351,57.897-46.797v115.892c0,2.298-0.165,4.014,2.132,4.014h14.163
		c2.297,0,4.706-1.716,4.706-4.014V242.95c10,11.482,21.778,19.137,40.151,19.137c27.525,0,47.849-19.255,53.849-46.804v115.704
		c0,2.298,0.984,4.014,3.283,4.014h14.162c2.298,0,3.555-1.716,3.555-4.014V242.95c10,11.482,21.941,19.137,40.312,19.137
		c29.111,0,51.219-21.536,54.711-51.644c3.535,31.034,25.834,51.263,58.079,51.263c33.683,0,57.041-24.006,58.188-59.986
		C494.29,199.422,492.768,198,490.474,198z M400,123.907c0-23.732,12.698-39.426,36.434-39.426c22.967,0,36.587,16.09,36.587,38.291
		c0,20.287-13.936,35.229-36.902,35.229H400V123.907z M125,202.375c0,22.583-13.589,38.279-36.556,38.279
		c-23.348,0-37.224-15.349-37.224-37.932c0-18.758,13.685-33.722,36.268-33.722H125V202.375z M242,201.991
		c0,22.967-14.034,39.043-37,39.043s-37-16.077-37-39.043v-78.851c0-22.966,14.034-39.042,37-39.042s37,16.076,37,39.042V201.991z
		 M357,201.991c0,22.967-14.034,39.043-37,39.043s-37-16.077-37-39.043v-78.851c0-22.966,14.034-39.042,37-39.042
		s37,16.076,37,39.042V201.991z"/>
	<path fill="#323436" d="M472.604,19.702l-23.855,31.694c-1.363,2.045-3.407,2.727-5.794,2.727h-13.973
		c-3.748,0-5.111-2.386-3.066-5.453l19.426-31.353c1.021-2.045,3.066-3.408,5.452-3.408h19.085
		C473.968,13.908,474.991,16.634,472.604,19.702z"/>
	<path fill="#F59C0E" d="M436.789,159c21.292,0,38.554-16.862,38.554-38.153c0-21.292-16.379-38.354-37.671-38.354
		c-21.293,0-37.672,17.459-37.672,38.751V159H436.789z"/>
	<circle fill="#323436" cx="437.287" cy="120.323" r="14.995"/>
</g>
</svg>
