<svg width="28" height="56" viewBox="0 0 28 56" version="1.1" xmlns="http://www.w3.org/2000/svg" xmlns:xlink="http://www.w3.org/1999/xlink" xmlns:figma="http://www.figma.com/figma/ns">
<title>widget_star</title>
<desc>Created using Figma</desc>
<g id="Canvas" transform="translate(-1347 296)" figma:type="canvas">
<mask id="mask0_alpha" mask-type="alpha">
<path d="M 1347 -296L 1375 -296L 1375 -240L 1347 -240L 1347 -296Z" fill="#FFFFFF"/>
</mask>
<g id="widget_star" style="mix-blend-mode:normal;" mask="url(#mask0_alpha)" figma:type="frame">
<g id="Star" style="mix-blend-mode:normal;" figma:type="vector">
<use xlink:href="#path0_fill" transform="translate(1348.64 -295)" fill="#888888" style="mix-blend-mode:normal;"/>
</g>
<g id="Star" style="mix-blend-mode:normal;" figma:type="vector">
<use xlink:href="#path0_fill" transform="translate(1348.64 -267)" fill="#F79C00" style="mix-blend-mode:normal;"/>
</g>
</g>
</g>
<defs>
<path id="path0_fill" d="M 11.4664 1.82381C 11.8328 1.07908 12.8946 1.07908 13.261 1.82381L 16.1772 7.75121L 22.7156 8.693C 23.5372 8.81133 23.8653 9.82114 23.2702 10.3997L 18.5341 15.0049L 19.6589 21.5143C 19.8002 22.3322 18.9412 22.9563 18.207 22.5691L 12.3637 19.4879L 6.52045 22.5691C 5.78629 22.9563 4.92729 22.3322 5.06862 21.5143L 6.19341 15.0049L 1.45727 10.3997C 0.86221 9.82114 1.19032 8.81133 2.01182 8.693L 8.55026 7.75121L 11.4664 1.82381Z"/>
</defs>
</svg>
