<svg width="300" height="300" viewBox="0 0 300 300" version="1.1" xmlns="http://www.w3.org/2000/svg" xmlns:xlink="http://www.w3.org/1999/xlink" xmlns:figma="http://www.figma.com/figma/ns">
<title>pin-usuario</title>
<desc>Created using Figma</desc>
<g id="Canvas" transform="translate(-777 -610)" figma:type="canvas">
<mask id="mask0_alpha" mask-type="alpha">
<path d="M 777 610L 1077 610L 1077 910L 777 910L 777 610Z" fill="#FFFFFF"/>
</mask>
<g id="pin-usuario" style="mix-blend-mode:normal;" mask="url(#mask0_alpha)" figma:type="frame">
<g id="Subtract" style="mix-blend-mode:normal;" filter="url(#filter0_d)" figma:type="vector">
<use xlink:href="#path0_fill" transform="translate(819 630)" fill="#E05055" style="mix-blend-mode:normal;"/>
</g>
<g id="Ellipse 2" style="mix-blend-mode:normal;" figma:type="ellipse">
<use xlink:href="#path1_fill" transform="translate(868.263 678.334)" fill="#FFFFFF" style="mix-blend-mode:normal;"/>
</g>
</g>
</g>
<defs>
<filter id="filter0_d" filterUnits="userSpaceOnUse" x="812" y="628" width="230" height="282" color-interpolation-filters="sRGB">
<feFlood flood-opacity="0" result="BackgroundImageFix"/>
<desc>type="dropShadow" x="0" y="4" size="6" spread="0" color="0,0,0,0.25" blend="normal"</desc>
<feColorMatrix in="SourceAlpha" type="matrix" values="0 0 0 0 0 0 0 0 0 0 0 0 0 0 0 0 0 0 255 0"/>
<feOffset dx="0" dy="4"/>
<feGaussianBlur stdDeviation="3"/>
<feColorMatrix type="matrix" values="0 0 0 0 0 0 0 0 0 0 0 0 0 0 0 0 0 0 0.25 0"/>
<feBlend mode="normal" in2="BackgroundImageFix" result="effect1_dropShadow"/>
<feBlend mode="normal" in="SourceGraphic" in2="effect1_dropShadow" result="shape"/>
</filter>
<path id="path0_fill" fill-rule="evenodd" d="M 28.6585 188.698L 102.394 268.741C 105.97 273.084 112.592 273.087 116.173 268.748L 187.098 193.234C 214.901 159.545 223.337 116.392 209.384 74.9229L 208.743 73.0178C 175.076 -27.0447 33.0839 -23.3173 4.65404 78.3752C -6.42417 118.001 2.54785 156.998 28.6585 188.698ZM 109.4 168.652C 142.353 168.652 169.066 141.789 169.066 108.652C 169.066 75.5146 142.353 48.6515 109.4 48.6515C 76.4473 48.6515 49.7338 75.5146 49.7338 108.652C 49.7338 141.789 76.4473 168.652 109.4 168.652Z"/>
<path id="path1_fill" d="M 120.316 60.1812C 120.316 93.4183 93.3822 120.362 60.1579 120.362C 26.9336 120.362 0 93.4183 0 60.1812C 0 26.944 26.9336 0 60.1579 0C 93.3822 0 120.316 26.944 120.316 60.1812Z"/>
</defs>
</svg>
